
Open SVG
Paste markup
Demo
Contribute
About
Powered by the incredible SVGO


368 bytes → 368 bytes 100%
<svg width="60" height="60" xmlns="http://www.w3.org/2000/svg"><g transform="translate(10 10)" fill="none" fill-rule="evenodd"><circle stroke-opacity=".5" stroke="#69B017" stroke-width="10" fill="#FFF" cx="20" cy="20" r="25"/><circle stroke="#69B017" stroke-width="2" fill="#FFF" cx="20" cy="20" r="21"/><path d="M35 15.866l-10.787-.925L20 5l-4.213 9.94L5 15.867l8.182 7.09L10.73 33.5 20 27.908l9.27 5.592-2.453-10.544L35 15.866zm-15 9.228l-5.645 3.405 1.495-6.421-4.985-4.317 6.57-.564L20 11.143l2.565 6.053 6.57.564-4.983 4.317 1.494 6.422L20 25.094z" fill="#000" fill-rule="nonzero"/></g></svg>